{
    "name": "root",
    "gauges": {
        "Rocket.Policy.Entropy.mean": {
            "value": 0.1185583546757698,
            "min": 0.07932375371456146,
            "max": 0.1371118575334549,
            "count": 680
        },
        "Rocket.Environment.EpisodeLength.mean": {
            "value": 79.5609756097561,
            "min": 30.86261980830671,
            "max": 82.69747899159664,
            "count": 680
        },
        "Rocket.Policy.ExtrinsicValueEstimate.mean": {
            "value": 2.0525331497192383,
            "min": 0.4355960488319397,
            "max": 2.2193446159362793,
            "count": 680
        },
        "Rocket.Environment.CumulativeReward.mean": {
            "value": 2.5722304727973007,
            "min": 0.34025734337656777,
            "max": 3.138126705090205,
            "count": 680
        },
        "Rocket.Policy.ExtrinsicReward.mean": {
            "value": 2.5722304727973007,
            "min": 0.34025734337656777,
            "max": 3.138126705090205,
            "count": 680
        },
        "Rocket.IsTraining.mean": {
            "value": 1.0,
            "min": 1.0,
            "max": 1.0,
            "count": 680
        },
        "Rocket.Losses.ValueLoss.mean": {
            "value": 0.4465351104736328,
            "min": 0.06810034066438675,
            "max": 0.7718086242675781,
            "count": 414
        },
        "Rocket.Losses.PolicyLoss.mean": {
            "value": 0.02670329622924328,
            "min": 0.015965940430760384,
            "max": 0.05558297038078308,
            "count": 414
        },
        "Rocket.Policy.LearningRate.mean": {
            "value": 0.00032030476722866297,
            "min": 0.00032030476722866297,
            "max": 0.0009983523050323129,
            "count": 414
        },
        "Rocket.Policy.Epsilon.mean": {
            "value": 0.16406095027923584,
            "min": 0.16406095027923584,
            "max": 0.2996704578399658,
            "count": 414
        },
        "Rocket.Policy.Beta.mean": {
            "value": 0.0001669493067311123,
            "min": 0.0001669493067311123,
            "max": 0.000499192625284195,
            "count": 414
        }
    },
    "metadata": {
        "timer_format_version": "0.1.0",
        "start_time_seconds": "1606318514",
        "python_version": "3.8.2 (tags/v3.8.2:7b3ab59, Feb 25 2020, 23:03:10) [MSC v.1916 64 bit (AMD64)]",
        "command_line_arguments": "C:\\Python38\\Scripts\\mlagents-learn config/lander_config.yaml --run-id=Rocket6_Discrete --initialize-from=Rocket5_Discrete",
        "mlagents_version": "0.21.1",
        "mlagents_envs_version": "0.21.1",
        "communication_protocol_version": "1.2.0",
        "tensorflow_version": "2.3.1",
        "numpy_version": "1.18.5",
        "end_time_seconds": "1606336960"
    },
    "total": 18446.005868,
    "count": 1,
    "self": 0.007336599999689497,
    "children": {
        "run_training.setup": {
            "total": 0.01775419999999972,
            "count": 1,
            "self": 0.01775419999999972
        },
        "TrainerController.start_learning": {
            "total": 18445.980777200002,
            "count": 1,
            "self": 18.978817299270304,
            "children": {
                "TrainerController._reset_env": {
                    "total": 9.778232800000001,
                    "count": 1,
                    "self": 9.778232800000001
                },
                "TrainerController.advance": {
                    "total": 18414.15619840073,
                    "count": 499058,
                    "self": 8.871202501435619,
                    "children": {
                        "env_step": {
                            "total": 18405.284995899296,
                            "count": 499058,
                            "self": 15282.121994400815,
                            "children": {
                                "SubprocessEnvManager._take_step": {
                                    "total": 3112.776279298988,
                                    "count": 499058,
                                    "self": 24.24507739920955,
                                    "children": {
                                        "TFPolicy.evaluate": {
                                            "total": 3088.5312018997784,
                                            "count": 425432,
                                            "self": 3088.5312018997784
                                        }
                                    }
                                },
                                "workers": {
                                    "total": 10.386722199491354,
                                    "count": 499057,
                                    "self": 0.0,
                                    "children": {
                                        "worker_root": {
                                            "total": 18412.74693630044,
                                            "count": 499057,
                                            "is_parallel": true,
                                            "self": 4406.484017399811,
                                            "children": {
                                                "steps_from_proto": {
                                                    "total": 0.0018260000000003274,
                                                    "count": 1,
                                                    "is_parallel": true,
                                                    "self": 0.0006254000000005533,
                                                    "children": {
                                                        "_process_vector_observation": {
                                                            "total": 0.001200599999999774,
                                                            "count": 2,
                                                            "is_parallel": true,
                                                            "self": 0.001200599999999774
                                                        }
                                                    }
                                                },
                                                "UnityEnvironment.step": {
                                                    "total": 14006.261092900628,
                                                    "count": 499057,
                                                    "is_parallel": true,
                                                    "self": 63.232389200382386,
                                                    "children": {
                                                        "UnityEnvironment._generate_step_input": {
                                                            "total": 323.98554129980056,
                                                            "count": 499057,
                                                            "is_parallel": true,
                                                            "self": 323.98554129980056
                                                        },
                                                        "communicator.exchange": {
                                                            "total": 13333.101641700176,
                                                            "count": 499057,
                                                            "is_parallel": true,
                                                            "self": 13333.101641700176
                                                        },
                                                        "steps_from_proto": {
                                                            "total": 285.9415207002687,
                                                            "count": 499057,
                                                            "is_parallel": true,
                                                            "self": 120.77536800112853,
                                                            "children": {
                                                                "_process_vector_observation": {
                                                                    "total": 165.16615269914018,
                                                                    "count": 998114,
                                                                    "is_parallel": true,
                                                                    "self": 165.16615269914018
                                                                }
                                                            }
                                                        }
                                                    }
                                                }
                                            }
                                        }
                                    }
                                }
                            }
                        }
                    }
                },
                "trainer_threads": {
                    "total": 3.0400002287933603e-05,
                    "count": 1,
                    "self": 3.0400002287933603e-05,
                    "children": {
                        "thread_root": {
                            "total": 0.0,
                            "count": 0,
                            "is_parallel": true,
                            "self": 0.0,
                            "children": {
                                "trainer_advance": {
                                    "total": 18266.229107101248,
                                    "count": 7214037,
                                    "is_parallel": true,
                                    "self": 352.9075510035291,
                                    "children": {
                                        "process_trajectory": {
                                            "total": 16418.59279159772,
                                            "count": 7214037,
                                            "is_parallel": true,
                                            "self": 16366.048343697716,
                                            "children": {
                                                "RLTrainer._checkpoint": {
                                                    "total": 52.54444790000343,
                                                    "count": 13,
                                                    "is_parallel": true,
                                                    "self": 52.54444790000343
                                                }
                                            }
                                        },
                                        "_update_policy": {
                                            "total": 1494.7287645000015,
                                            "count": 414,
                                            "is_parallel": true,
                                            "self": 758.3250508999622,
                                            "children": {
                                                "PPOOptimizer.update": {
                                                    "total": 736.4037136000393,
                                                    "count": 19872,
                                                    "is_parallel": true,
                                                    "self": 736.4037136000393
                                                }
                                            }
                                        }
                                    }
                                }
                            }
                        }
                    }
                },
                "TrainerController._save_models": {
                    "total": 3.067498299998988,
                    "count": 1,
                    "self": 0.008670499999425374,
                    "children": {
                        "RLTrainer._checkpoint": {
                            "total": 3.0588277999995626,
                            "count": 1,
                            "self": 3.0588277999995626
                        }
                    }
                }
            }
        }
    }
}