{
    "Rocket": {
        "checkpoints": [
            {
                "steps": 4999969,
                "file_path": "results\\Rocket6_Discrete\\Rocket\\Rocket-4999969.nn",
                "reward": 2.1545341168530285,
                "creation_time": 1606332001.4125133
            },
            {
                "steps": 5499966,
                "file_path": "results\\Rocket6_Discrete\\Rocket\\Rocket-5499966.nn",
                "reward": 1.804015427827835,
                "creation_time": 1606333418.823619
            },
            {
                "steps": 5999982,
                "file_path": "results\\Rocket6_Discrete\\Rocket\\Rocket-5999982.nn",
                "reward": 2.4753891572039177,
                "creation_time": 1606335118.985233
            },
            {
                "steps": 6499997,
                "file_path": "results\\Rocket6_Discrete\\Rocket\\Rocket-6499997.nn",
                "reward": 2.0932693204818626,
                "creation_time": 1606336356.9958336
            },
            {
                "steps": 6806544,
                "file_path": "results\\Rocket6_Discrete\\Rocket\\Rocket-6806544.nn",
                "reward": 2.5329180376664286,
                "creation_time": 1606336960.1695337
            }
        ],
        "final_checkpoint": {
            "steps": 6806544,
            "file_path": "results\\Rocket6_Discrete\\Rocket.nn",
            "reward": 2.5329180376664286,
            "creation_time": 1606336960.1695337
        }
    },
    "metadata": {
        "stats_format_version": "0.1.0",
        "mlagents_version": "0.21.1",
        "tensorflow_version": "2.3.1"
    }
}