{
    "Rocket": {
        "checkpoints": [
            {
                "steps": 2499962,
                "file_path": "results\\Rocket5_Discrete\\Rocket\\Rocket-2499962.nn",
                "reward": 1.9665492807115827,
                "creation_time": 1606308218.143451
            },
            {
                "steps": 2999939,
                "file_path": "results\\Rocket5_Discrete\\Rocket\\Rocket-2999939.nn",
                "reward": 1.9631124553007957,
                "creation_time": 1606309156.0813854
            },
            {
                "steps": 3499959,
                "file_path": "results\\Rocket5_Discrete\\Rocket\\Rocket-3499959.nn",
                "reward": 2.072365051991231,
                "creation_time": 1606311822.5515597
            },
            {
                "steps": 3999997,
                "file_path": "results\\Rocket5_Discrete\\Rocket\\Rocket-3999997.nn",
                "reward": 2.703267880478261,
                "creation_time": 1606314214.7375546
            },
            {
                "steps": 4205650,
                "file_path": "results\\Rocket5_Discrete\\Rocket\\Rocket-4205650.nn",
                "reward": 2.517571399288793,
                "creation_time": 1606314778.4078705
            }
        ],
        "final_checkpoint": {
            "steps": 4205650,
            "file_path": "results\\Rocket5_Discrete\\Rocket.nn",
            "reward": 2.517571399288793,
            "creation_time": 1606314778.4078705
        }
    },
    "metadata": {
        "stats_format_version": "0.1.0",
        "mlagents_version": "0.21.1",
        "tensorflow_version": "2.3.1"
    }
}