{
    "name": "root",
    "gauges": {
        "Rocket.Policy.Entropy.mean": {
            "value": 1.4189215898513794,
            "min": 1.4189215898513794,
            "max": 1.4189215898513794,
            "count": 1
        },
        "Rocket.Environment.EpisodeLength.mean": {
            "value": 17.06115107913669,
            "min": 17.06115107913669,
            "max": 17.06115107913669,
            "count": 1
        },
        "Rocket.Policy.ExtrinsicValueEstimate.mean": {
            "value": 0.013857529498636723,
            "min": 0.013857529498636723,
            "max": 0.013857529498636723,
            "count": 1
        },
        "Rocket.Environment.CumulativeReward.mean": {
            "value": 0.0,
            "min": 0.0,
            "max": 0.0,
            "count": 1
        },
        "Rocket.Policy.ExtrinsicReward.mean": {
            "value": 0.0,
            "min": 0.0,
            "max": 0.0,
            "count": 1
        },
        "Rocket.Losses.ValueLoss.mean": {
            "value": 0.017340661957859993,
            "min": 0.017340661957859993,
            "max": 0.017340661957859993,
            "count": 1
        },
        "Rocket.Losses.PolicyLoss.mean": {
            "value": 0.02129516564309597,
            "min": 0.02129516564309597,
            "max": 0.02129516564309597,
            "count": 1
        },
        "Rocket.Policy.LearningRate.mean": {
            "value": 9.991789556806907e-05,
            "min": 9.991789556806907e-05,
            "max": 9.991789556806907e-05,
            "count": 1
        },
        "Rocket.Policy.Epsilon.mean": {
            "value": 0.29983580112457275,
            "min": 0.29983580112457275,
            "max": 0.29983580112457275,
            "count": 1
        },
        "Rocket.Policy.Beta.mean": {
            "value": 0.0004995976923964918,
            "min": 0.0004995976923964918,
            "max": 0.0004995976923964918,
            "count": 1
        },
        "Rocket.IsTraining.mean": {
            "value": 1.0,
            "min": 1.0,
            "max": 1.0,
            "count": 1
        }
    },
    "metadata": {
        "timer_format_version": "0.1.0",
        "start_time_seconds": "1606211201",
        "python_version": "3.8.2 (tags/v3.8.2:7b3ab59, Feb 25 2020, 23:03:10) [MSC v.1916 64 bit (AMD64)]",
        "command_line_arguments": "C:\\Python38\\Scripts\\mlagents-learn config/lander_config.yaml --run-id=Rocket1_256_3",
        "mlagents_version": "0.21.1",
        "mlagents_envs_version": "0.21.1",
        "communication_protocol_version": "1.2.0",
        "tensorflow_version": "2.3.1",
        "numpy_version": "1.18.5",
        "end_time_seconds": "1606211243"
    },
    "total": 42.4375026,
    "count": 1,
    "self": 0.006898999999997102,
    "children": {
        "run_training.setup": {
            "total": 0.030593300000001378,
            "count": 1,
            "self": 0.030593300000001378
        },
        "TrainerController.start_learning": {
            "total": 42.400010300000005,
            "count": 1,
            "self": 0.23201800000003203,
            "children": {
                "TrainerController._reset_env": {
                    "total": 11.246504200000002,
                    "count": 1,
                    "self": 11.246504200000002
                },
                "TrainerController.advance": {
                    "total": 28.378416699999974,
                    "count": 968,
                    "self": 0.012020399999954634,
                    "children": {
                        "env_step": {
                            "total": 28.36639630000002,
                            "count": 968,
                            "self": 26.608268899999903,
                            "children": {
                                "SubprocessEnvManager._take_step": {
                                    "total": 1.7438087000000557,
                                    "count": 968,
                                    "self": 0.026992400000022343,
                                    "children": {
                                        "TFPolicy.evaluate": {
                                            "total": 1.7168163000000334,
                                            "count": 532,
                                            "self": 1.7168163000000334
                                        }
                                    }
                                },
                                "workers": {
                                    "total": 0.014318700000060858,
                                    "count": 967,
                                    "self": 0.0,
                                    "children": {
                                        "worker_root": {
                                            "total": 30.925401800000028,
                                            "count": 967,
                                            "is_parallel": true,
                                            "self": 6.253596899999973,
                                            "children": {
                                                "steps_from_proto": {
                                                    "total": 0.0019994000000007617,
                                                    "count": 1,
                                                    "is_parallel": true,
                                                    "self": 0.00012530000000232633,
                                                    "children": {
                                                        "_process_vector_observation": {
                                                            "total": 0.0018740999999984354,
                                                            "count": 2,
                                                            "is_parallel": true,
                                                            "self": 0.0018740999999984354
                                                        }
                                                    }
                                                },
                                                "UnityEnvironment.step": {
                                                    "total": 24.669805500000056,
                                                    "count": 967,
                                                    "is_parallel": true,
                                                    "self": 0.08891120000018304,
                                                    "children": {
                                                        "UnityEnvironment._generate_step_input": {
                                                            "total": 0.6032667000000309,
                                                            "count": 967,
                                                            "is_parallel": true,
                                                            "self": 0.6032667000000309
                                                        },
                                                        "communicator.exchange": {
                                                            "total": 23.592450799999973,
                                                            "count": 967,
                                                            "is_parallel": true,
                                                            "self": 23.592450799999973
                                                        },
                                                        "steps_from_proto": {
                                                            "total": 0.38517679999986854,
                                                            "count": 967,
                                                            "is_parallel": true,
                                                            "self": 0.09043320000000676,
                                                            "children": {
                                                                "_process_vector_observation": {
                                                                    "total": 0.29474359999986177,
                                                                    "count": 1934,
                                                                    "is_parallel": true,
                                                                    "self": 0.29474359999986177
                                                                }
                                                            }
                                                        }
                                                    }
                                                }
                                            }
                                        }
                                    }
                                }
                            }
                        }
                    }
                },
                "trainer_threads": {
                    "total": 2.800000000036107e-05,
                    "count": 1,
                    "self": 2.800000000036107e-05,
                    "children": {
                        "thread_root": {
                            "total": 0.0,
                            "count": 0,
                            "is_parallel": true,
                            "self": 0.0,
                            "children": {
                                "trainer_advance": {
                                    "total": 28.472506099999894,
                                    "count": 11202,
                                    "is_parallel": true,
                                    "self": 0.28065440000010256,
                                    "children": {
                                        "process_trajectory": {
                                            "total": 25.79054229999979,
                                            "count": 11202,
                                            "is_parallel": true,
                                            "self": 25.79054229999979
                                        },
                                        "_update_policy": {
                                            "total": 2.4013094000000024,
                                            "count": 2,
                                            "is_parallel": true,
                                            "self": 1.5146420000000305,
                                            "children": {
                                                "PPOOptimizer.update": {
                                                    "total": 0.8866673999999719,
                                                    "count": 48,
                                                    "is_parallel": true,
                                                    "self": 0.8866673999999719
                                                }
                                            }
                                        }
                                    }
                                }
                            }
                        }
                    }
                },
                "TrainerController._save_models": {
                    "total": 2.543043399999995,
                    "count": 1,
                    "self": 0.008011599999996122,
                    "children": {
                        "RLTrainer._checkpoint": {
                            "total": 2.5350317999999987,
                            "count": 1,
                            "self": 2.5350317999999987
                        }
                    }
                }
            }
        }
    }
}