{
    "Rocket": {
        "checkpoints": [
            {
                "steps": 16417,
                "file_path": "results\\Rocket1_256_3\\Rocket\\Rocket-16417.nn",
                "reward": null,
                "creation_time": 1606211243.6685698
            }
        ],
        "final_checkpoint": {
            "steps": 16417,
            "file_path": "results\\Rocket1_256_3\\Rocket.nn",
            "reward": null,
            "creation_time": 1606211243.6685698
        }
    },
    "metadata": {
        "stats_format_version": "0.1.0",
        "mlagents_version": "0.21.1",
        "tensorflow_version": "2.3.1"
    }
}