{
    "Rocket": {
        "checkpoints": [
            {
                "steps": 3999998,
                "file_path": "results\\Rocket5\\Rocket\\Rocket-3999998.nn",
                "reward": 0.28354844096902143,
                "creation_time": 1605971843.208839
            },
            {
                "steps": 4499984,
                "file_path": "results\\Rocket5\\Rocket\\Rocket-4499984.nn",
                "reward": 0.4843211829402419,
                "creation_time": 1605972654.6337504
            },
            {
                "steps": 4999991,
                "file_path": "results\\Rocket5\\Rocket\\Rocket-4999991.nn",
                "reward": 1.1365411798057914,
                "creation_time": 1605973441.9098792
            },
            {
                "steps": 5499992,
                "file_path": "results\\Rocket5\\Rocket\\Rocket-5499992.nn",
                "reward": 1.4853640410762567,
                "creation_time": 1605974224.7561536
            },
            {
                "steps": 5670684,
                "file_path": "results\\Rocket5\\Rocket\\Rocket-5670684.nn",
                "reward": 1.5147573304435014,
                "creation_time": 1605974506.933003
            }
        ],
        "final_checkpoint": {
            "steps": 5670684,
            "file_path": "results\\Rocket5\\Rocket.nn",
            "reward": 1.5147573304435014,
            "creation_time": 1605974506.933003
        }
    },
    "metadata": {
        "stats_format_version": "0.1.0",
        "mlagents_version": "0.21.1",
        "tensorflow_version": "2.3.1"
    }
}