{
    "name": "root",
    "gauges": {
        "Rocket.Policy.Entropy.mean": {
            "value": 1.2328985929489136,
            "min": 1.2328985929489136,
            "max": 1.4197299480438232,
            "count": 1422
        },
        "Rocket.Environment.EpisodeLength.mean": {
            "value": 37.59073359073359,
            "min": 23.02657004830918,
            "max": 39.05622489959839,
            "count": 1422
        },
        "Rocket.Policy.ExtrinsicValueEstimate.mean": {
            "value": 0.06160148233175278,
            "min": -0.002007078845053911,
            "max": 0.07189389318227768,
            "count": 1422
        },
        "Rocket.Environment.CumulativeReward.mean": {
            "value": 0.07023001706738269,
            "min": 0.0,
            "max": 0.08608193701434984,
            "count": 1422
        },
        "Rocket.Policy.ExtrinsicReward.mean": {
            "value": 0.07023001706738269,
            "min": 0.0,
            "max": 0.08608193701434984,
            "count": 1422
        },
        "Rocket.IsTraining.mean": {
            "value": 1.0,
            "min": 1.0,
            "max": 1.0,
            "count": 1422
        },
        "Rocket.Losses.ValueLoss.mean": {
            "value": 0.0012906751362606883,
            "min": 0.0001436154852854088,
            "max": 0.04429538920521736,
            "count": 1415
        },
        "Rocket.Losses.PolicyLoss.mean": {
            "value": 0.05509850010275841,
            "min": 0.03849273920059204,
            "max": 0.06372536718845367,
            "count": 1415
        },
        "Rocket.Policy.LearningRate.mean": {
            "value": 2.5736357201822102e-05,
            "min": 2.5736357201822102e-05,
            "max": 2.9996994271641597e-05,
            "count": 1415
        },
        "Rocket.Policy.Epsilon.mean": {
            "value": 0.18578779697418213,
            "min": 0.18578779697418213,
            "max": 0.19998997449874878,
            "count": 1415
        },
        "Rocket.Policy.Beta.mean": {
            "value": 0.0008592995582148433,
            "min": 0.0008592995582148433,
            "max": 0.000999900628812611,
            "count": 1415
        }
    },
    "metadata": {
        "timer_format_version": "0.1.0",
        "start_time_seconds": "1606055237",
        "python_version": "3.8.2 (tags/v3.8.2:7b3ab59, Feb 25 2020, 23:03:10) [MSC v.1916 64 bit (AMD64)]",
        "command_line_arguments": "C:\\Python38\\Scripts\\mlagents-learn config/lander_config.yaml --run-id=Rocket7",
        "mlagents_version": "0.21.1",
        "mlagents_envs_version": "0.21.1",
        "communication_protocol_version": "1.2.0",
        "tensorflow_version": "2.3.1",
        "numpy_version": "1.18.5",
        "end_time_seconds": "1606076701"
    },
    "total": 21463.311463500002,
    "count": 1,
    "self": 0.005933700002060505,
    "children": {
        "run_training.setup": {
            "total": 0.021779500000000063,
            "count": 1,
            "self": 0.021779500000000063
        },
        "TrainerController.start_learning": {
            "total": 21463.2837503,
            "count": 1,
            "self": 17.30922280031882,
            "children": {
                "TrainerController._reset_env": {
                    "total": 10.5820738,
                    "count": 1,
                    "self": 10.5820738
                },
                "TrainerController.advance": {
                    "total": 21433.165912499684,
                    "count": 679144,
                    "self": 8.338793799699488,
                    "children": {
                        "env_step": {
                            "total": 21424.827118699985,
                            "count": 679144,
                            "self": 20489.60110759992,
                            "children": {
                                "SubprocessEnvManager._take_step": {
                                    "total": 924.5571247007659,
                                    "count": 679144,
                                    "self": 21.952217200676728,
                                    "children": {
                                        "TFPolicy.evaluate": {
                                            "total": 902.6049075000892,
                                            "count": 444410,
                                            "self": 902.6049075000892
                                        }
                                    }
                                },
                                "workers": {
                                    "total": 10.66888639929893,
                                    "count": 679143,
                                    "self": 0.0,
                                    "children": {
                                        "worker_root": {
                                            "total": 21432.58227999925,
                                            "count": 679143,
                                            "is_parallel": true,
                                            "self": 2741.5915492993336,
                                            "children": {
                                                "steps_from_proto": {
                                                    "total": 0.0006053000000001418,
                                                    "count": 1,
                                                    "is_parallel": true,
                                                    "self": 0.00011859999999863646,
                                                    "children": {
                                                        "_process_vector_observation": {
                                                            "total": 0.00048670000000150537,
                                                            "count": 2,
                                                            "is_parallel": true,
                                                            "self": 0.00048670000000150537
                                                        }
                                                    }
                                                },
                                                "UnityEnvironment.step": {
                                                    "total": 18690.990125399916,
                                                    "count": 679143,
                                                    "is_parallel": true,
                                                    "self": 60.705098798669496,
                                                    "children": {
                                                        "UnityEnvironment._generate_step_input": {
                                                            "total": 501.00541390060124,
                                                            "count": 679143,
                                                            "is_parallel": true,
                                                            "self": 501.00541390060124
                                                        },
                                                        "communicator.exchange": {
                                                            "total": 17836.4593874009,
                                                            "count": 679143,
                                                            "is_parallel": true,
                                                            "self": 17836.4593874009
                                                        },
                                                        "steps_from_proto": {
                                                            "total": 292.8202252997428,
                                                            "count": 679143,
                                                            "is_parallel": true,
                                                            "self": 65.8298682999662,
                                                            "children": {
                                                                "_process_vector_observation": {
                                                                    "total": 226.9903569997766,
                                                                    "count": 1358286,
                                                                    "is_parallel": true,
                                                                    "self": 226.9903569997766
                                                                }
                                                            }
                                                        }
                                                    }
                                                }
                                            }
                                        }
                                    }
                                }
                            }
                        }
                    }
                },
                "trainer_threads": {
                    "total": 3.149999974993989e-05,
                    "count": 1,
                    "self": 3.149999974993989e-05,
                    "children": {
                        "thread_root": {
                            "total": 0.0,
                            "count": 0,
                            "is_parallel": true,
                            "self": 0.0,
                            "children": {
                                "trainer_advance": {
                                    "total": 21352.24165529778,
                                    "count": 8354161,
                                    "is_parallel": true,
                                    "self": 206.06199889484924,
                                    "children": {
                                        "process_trajectory": {
                                            "total": 18350.850883602918,
                                            "count": 8354161,
                                            "is_parallel": true,
                                            "self": 18287.380731102916,
                                            "children": {
                                                "RLTrainer._checkpoint": {
                                                    "total": 63.47015250000163,
                                                    "count": 28,
                                                    "is_parallel": true,
                                                    "self": 63.47015250000163
                                                }
                                            }
                                        },
                                        "_update_policy": {
                                            "total": 2795.3287728000146,
                                            "count": 1415,
                                            "is_parallel": true,
                                            "self": 1314.970395800457,
                                            "children": {
                                                "PPOOptimizer.update": {
                                                    "total": 1480.3583769995575,
                                                    "count": 165555,
                                                    "is_parallel": true,
                                                    "self": 1480.3583769995575
                                                }
                                            }
                                        }
                                    }
                                }
                            }
                        }
                    }
                },
                "TrainerController._save_models": {
                    "total": 2.2265096999981324,
                    "count": 1,
                    "self": 0.008951100000558654,
                    "children": {
                        "RLTrainer._checkpoint": {
                            "total": 2.2175585999975738,
                            "count": 1,
                            "self": 2.2175585999975738
                        }
                    }
                }
            }
        }
    }
}